id,name,expireDate,aisle,quantity,pricePerPound,weightInPounds,origin,hasSeeds
401,Granny Smith Apple,16-Dec-23,4,52,0.75,0.2,Ontario,TRUE
402,Celery,16-Dec-23,4,29,3,0.4,Quebec,FALSE
403,12 Pack Cherry Tomatoes,20-Nov-23,4,18,4,0.5,Florida,TRUE
